digraph G {
node [shape=square, color=black];
edge [color=black];
x15 [label = "x15", fontcolor=black];
x14 [label = "x14", fontcolor=black];
x13 [label = "x13", fontcolor=black];
x12 [label = "x12", fontcolor=black];
x11 [label = "x11", fontcolor=black];
x10 [label = "x10", fontcolor=black];
x9 [label = "x9", fontcolor=black];
x8 [label = "x8", fontcolor=black];
x7 [label = "x7", fontcolor=black];
x6 [label = "x6", fontcolor=black];
x5 [label = "x5", fontcolor=black];
x4 [label = "x4", fontcolor=black];
x3 [label = "x3", fontcolor=black];
x2 [label = "x2", fontcolor=black];
x15 -> x14;
x14 -> x13;
x13 -> x12;
x12 -> x11;
x11 -> x10;
x10 -> x9;
x9 -> x8;
x8 -> x7;
x7 -> x6;
x6 -> x5;
x5 -> x4;
x4 -> x3;
x3 -> x2;
}
