int sz = 2975;int no_clusters = 6;
string[] cluster_name={"K6","K2","K1","K5","K3","K4"};
real[] cluster_x={840.81820231,0.705421979954,-474.885754613,627.108489218,766.929208138,840.415774042};
real[] cluster_y={125.0,850.058675454,-705.041679194,-573.877331915,-366.633112308,-127.677625592};
real[] cluster_i={0.0,2.0,2.0,0.0,0.0,0.0,9.0,6.0,2.0,0.0,0.0,9.0,0.0,0.0,1.0,0.0,0.0,0.0,0.0,0.0,0.0};
real[] cluster_p1={0.0,1.0,3.0,0.0,0.0,1.0,1.0,18.0,0.0,5.0,5.0,1.0,0.0,0.0,4.0,0.0,1.0,1.0,0.0,0.0,0.0};
real[] cluster_p2={0.0,2.0,0.0,1.0,0.0,0.0,0.0,0.0,3.0,0.0,0.0,0.0,5.0,0.0,0.0,0.0,0.0,0.0,0.0,0.0,0.0};
real[] cluster_j={0.0,0.0,0.0,0.0,1.0,0.0,0.0,1.0,0.0,0.0,0.0,0.0,0.0,5.0,0.0,0.0,0.0,0.0,0.0,1.0,0.0};
import settings;
import plain;

outformat="png";
int sz = 700;
size(sz,sz);
pen dashed=linetype(new real[] {8,8});
int circle_size = 70;
int margin = 40;

real x1,y1,x2,y2,a1,a2,a3,a4,ct;
pair A1,A2,X,Y;
int k;
string c1;
for(int i=0;i<no_clusters;++i)
{
	x1 = cluster_x[i];
	y1 = cluster_y[i];
	c1 = cluster_name[i];
	draw(circle((x1,y1),circle_size),rgb(0.0,0.0,0.0)+2);
	label(c1,(x1,y1)+dir((0,0)--(x1,y1))*1.3*circle_size,rgb(0.0,0.0,0.0)+fontsize(24));
}
k = 0;
for(int i=0;i<no_clusters;++i)
{
	for(int j=i;j<no_clusters;++j)
	{
		if(i==j)
		{
			x1 = cluster_x[i];
			y1 = cluster_y[i];
			a1 = cluster_i[k];
			a2 = cluster_p1[k];
			a3 = cluster_p2[k];
			a4 = cluster_j[k];
			ct = 0;
			if(a1>0.0) ct = ct+1;
			if(a2>0.0) ct = ct+1;
			if(a3>0.0) ct = ct+1;
			if(a4>0.0) ct = ct+1;
			x1 = x1 - circle_size * 0.6;
			y1 = y1 + circle_size * 0.4 * (ct - 1)/2;
			x2 = x1 + 2 * circle_size * 0.6;
			y2 = y1;
			if(a1>0.0)
			{
				draw((x1,y1)--(x2,y2),rgb(0.3,0,0.3));
				draw((x1,y1)--(x1,y1)+dir((x1,y1)--(x2,y2))*margin,rgb(0.4,0,0.4) + 3);
				draw((x2,y2)--(x2,y2)+dir((x2,y2)--(x1,y1))*margin,rgb(0.4,0,0.4) + 3);
				label(string(a1),((x1,y1)+(x2,y2))/2 + (0,13),rgb(0.0,0.0,0.0)+fontsize(24));
				y1 = y1 - circle_size * 0.4;
				y2 = y1;
			}
			if(a2>0.0)
			{
				draw((x1,y1)--(x2,y2),rgb(0.3,0,0.3));
				draw((x1,y1)--(x1,y1)+dir((x1,y1)--(x2,y2))*(margin-15),rgb(1,0,0) + 3);
				draw((x2,y2)+dir((x2,y2)--(x1,y1))*margin--(x2,y2)+dir((x2,y2)--(x1,y1))*15,rgb(0,0,1) + 3);
				draw((x1,y1)--(x1,y1)+dir((x1,y1)--(x2,y2))*margin,rgb(1,0,0) + 3,Arrow(20));
				draw((x2,y2)+dir((x2,y2)--(x1,y1))*margin--(x2,y2),rgb(0,0,1) + 3,Arrow(20));
				label(string(a2),((x1,y1)+(x2,y2))/2 + (0,13),rgb(0.0,0.0,0.0)+fontsize(24));
				y1 = y1 - circle_size * 0.4;
				y2 = y1;
			}
			if(a3>0.0)
			{
				draw((x1,y1)--(x2,y2),rgb(0.3,0,0.3));
				draw((x2,y2)--(x2,y2)+dir((x2,y2)--(x1,y1))*(margin-15),rgb(1,0,0) + 3);
				draw((x1,y1)+dir((x1,y1)--(x2,y2))*margin--(x1,y1)+dir((x1,y1)--(x2,y2))*15,rgb(0,0,1) + 3);
				draw((x2,y2)--(x2,y2)+dir((x2,y2)--(x1,y1))*margin,rgb(1,0,0) + 3,Arrow(20));
				draw((x1,y1)+dir((x1,y1)--(x2,y2))*margin--(x1,y1),rgb(0,0,1) + 3,Arrow(20));
				label(string(a3),((x1,y1)+(x2,y2))/2 + (0,13),rgb(0.0,0.0,0.0)+fontsize(24));
				y1 = y1 - circle_size * 0.4;
				y2 = y1;
			}
			if(a4>0.0)
			{
				draw((x1,y1)--(x2,y2),rgb(0,0,0) + 2);
				label(string(a4),((x1,y1)+(x2,y2))/2 + (0,13),rgb(0.0,0.0,0.0)+fontsize(24));
			}
			if((a1 == a2) && (a1 == a3) && (a1 == a4) && (a1 == 0.0))
			{
				draw((x1,y1)--(x2,y2),rgb(0.3,0,0.3));
				draw((x1,y1)--(x1,y1)+dir((x1,y1)--(x2,y2))*margin,rgb(0.4,0,0.4) + 3);
				draw((x2,y2)--(x2,y2)+dir((x2,y2)--(x1,y1))*margin,rgb(0.4,0,0.4) + 3);
				label(string(0),((x1,y1)+(x2,y2))/2 + (0,13),rgb(0.0,0.0,0.0)+fontsize(24));
			}
		}
		else
		{
			x1 = cluster_x[i];
			y1 = cluster_y[i];
			x2 = cluster_x[j];
			y2 = cluster_y[j];
			a1 = cluster_i[k];
			a2 = cluster_p1[k];
			a3 = cluster_p2[k];
			a4 = cluster_j[k];
			ct = 0;
			if(a1>0.0) ct = ct+1;
			if(a2>0.0) ct = ct+1;
			if(a3>0.0) ct = ct+1;
			if(a4>0.0) ct = ct+1;
			X = (x1,y1) + dir((x1,y1)--(x2,y2)) * circle_size * 1.2;
			Y = (x2,y2) + dir((x2,y2)--(x1,y1)) * circle_size * 1.2;
			A1 = X + dir(X--(rotate(90,X)*Y)) * circle_size * 0.4 * (ct-1) / 2;
			A2 = Y + dir(X--(rotate(90,X)*Y)) * circle_size * 0.4 * (ct-1) / 2;
			if(a1>0.0)
			{
				draw(A1--A2,rgb(0.3,0,0.3));
				draw(A1--A1+dir(A1--A2)*margin,rgb(0.4,0,0.4) + 3);
				draw(A2--A2+dir(A2--A1)*margin,rgb(0.4,0,0.4) + 3);
				if(A1.x < A2.x)
					draw(Label(string(a1),Rotate(dir(A1--A2)),align=LeftSide),A1--A2,rgb(0.0,0.0,0.0)+fontsize(24));
				else draw(Label(string(a1),Rotate(dir(A2--A1)),align=LeftSide),A2--A1,rgb(0.0,0.0,0.0)+fontsize(24));
				A1 = A1 - dir(X--(rotate(90,X)*Y)) * circle_size * 0.4;
				A2 = A2 - dir(X--(rotate(90,X)*Y)) * circle_size * 0.4;
			}
			if(a2>0.0)
			{
				draw(A1--A2,rgb(0.3,0,0.3));
				draw(A1--A1+dir(A1--A2)*(margin-15),rgb(1,0,0) + 3);
				draw(A2+dir(A2--A1)*margin--A2+dir(A2--A1)*15,rgb(0,0,1) + 3);
				draw(A1--A1+dir(A1--A2)*margin,rgb(1,0,0) + 3,Arrow(20));
				draw(A2+dir(A2--A1)*margin--A2,rgb(0,0,1) + 3,Arrow(20));
				if(A1.x < A2.x)
					draw(Label(string(a2),Rotate(dir(A1--A2)),align=LeftSide),A1--A2,rgb(0.0,0.0,0.0)+fontsize(24));
				else draw(Label(string(a2),Rotate(dir(A2--A1)),align=LeftSide),A2--A1,rgb(0.0,0.0,0.0)+fontsize(24));
				A1 = A1 - dir(X--(rotate(90,X)*Y)) * circle_size * 0.4;
				A2 = A2 - dir(X--(rotate(90,X)*Y)) * circle_size * 0.4;
			}
			if(a3>0.0)
			{
				draw(A1--A2,rgb(0.3,0,0.3));
				draw(A2--A2+dir(A2--A1)*(margin-15),rgb(1,0,0) + 3);
				draw(A1+dir(A1--A2)*margin--A1+dir(A1--A2)*15,rgb(0,0,1) + 3);
				draw(A2--A2+dir(A2--A1)*margin,rgb(1,0,0) + 3,Arrow(20));
				draw(A1+dir(A1--A2)*margin--A1,rgb(0,0,1) + 3,Arrow(20));
				if(A1.x < A2.x)
					draw(Label(string(a3),Rotate(dir(A1--A2)),align=LeftSide),A1--A2,rgb(0.0,0.0,0.0)+fontsize(24));
				else draw(Label(string(a3),Rotate(dir(A2--A1)),align=LeftSide),A2--A1,rgb(0.0,0.0,0.0)+fontsize(24));
				A1 = A1 - dir(X--(rotate(90,X)*Y)) * circle_size * 0.4;
				A2 = A2 - dir(X--(rotate(90,X)*Y)) * circle_size * 0.4;
			}
			if(a4>0.0)
			{
				draw(A1--A2,rgb(0,0,0) + 2);
				if(A1.x < A2.x)
					draw(Label(string(a4),Rotate(dir(A1--A2)),align=LeftSide),A1--A2,rgb(0.0,0.0,0.0)+fontsize(24));
				else draw(Label(string(a4),Rotate(dir(A2--A1)),align=LeftSide),A2--A1,rgb(0.0,0.0,0.0)+fontsize(24));
			}
		}
		k = k+1;
	}
}
shipout(bbox(Fill(rgb(1,1,1))));

