digraph G {
    node [shape=oval, color=black, fontcolor=black]
    edge [color=black, fontcolor=black]
    n_0 [label="Peugeot 308"]
    n_1 [label="Mini Cooper"]
    n_2 [label="Ford Taurus"]
    n_3 [label="VW Beetle"]
    n_4 [label="Opel Corsa"]
    n_5 [label="Mitsubishi Galant"]
    n_0 -> n_1
    n_0 -> n_3
    n_0 -> n_5
    n_1 -> n_3
    n_2 -> n_0
    n_2 -> n_1
    n_2 -> n_3
    n_2 -> n_4
    n_2 -> n_5
    n_4 -> n_1
    n_4 -> n_3
    n_4 -> n_5
    n_5 -> n_1
    n_5 -> n_3
}