criterion, scales id, pref.dir, scale label, scale definition
c01,fuzzy scales,max,,
,,max, Very Low,"(0, 0) - (0.2, 1) - (0.5, 0)"
,,max, Low,"(0.0, 0) - (0.2, 1) - (0.5, 0)"
,,max, Medium,"(0.2, 0) - (0.5, 1) - (0.6, 0)"
,,max, Almost High,"(0.5, 0) - (0.6, 1) - (0.7, 0)"
,,max, High,"(0.6, 0) - (0.7, 1) - (0.8, 1) - (0.9, 0)"
,,max, Very High,"(0.8, 0) - (0.9, 1) - (1.0, 0)"
,,max, Perfect,"(0.9, 0) - (1.0, 1)"
c02,fuzzy scales,,,
c03,nominal scales,,,
,,,Poor,
,,,Standard,
,,,Top,
c04,nominal scales,,,
c05,quantitative scales,max,,"(0, 1)"
c06,regular qualitative scale,min,Deadly,3
,,,Serious,2
,,,Minor,1
