digraph G {
node [shape=rectangle, color=magenta];
edge [color=magenta];
labelloc="t";
label="Bad"; fontcolor=magenta;
labelBad [label = "a02, a14, fictiveWorst", shape=rectangle, fontcolor=magenta];
}
