digraph G {
node [shape=diamond, color=blue];
edge [color=blue];
g1 -> g2;
g1 -> g4;
g2 -> g4;
g3 -> g5;
g3 -> g1;
g3 -> g2;
g3 -> g4;
g5 -> g2;
g5 -> g4;
g1[fontcolor=blue]
g2[fontcolor=blue]
g3[fontcolor=blue]
g4[fontcolor=blue]
g5[fontcolor=blue]
}
